Matlab/REFFINAL.CSV

Record Length,15000,,Source,CH1,CH2
Sample Interval,40000.0000000000000,,Second,Volt,Volt
Vertical Units,CH1:V CH2:V,,-300000000.00000000000,0.24000,0.24000
Vertical Scale,CH1:1.00 CH2:1.00,,-299960000.0000000001.00,0.24000,1.12000
Vertical Offset,CH1:-2.00000 CH2:-2.00000,,-299920000.000000000-2.00000,0.24000,1.12000
Horizontal Units,s,,-299880000.00000000000,0.24000,1.12000
Horizontal Scale,1.0000000000,,-299840000.0000000001.0000000000,0.24000,1.12000
Model Number,WaveAce112,,-299800000.00000000000,0.24000,1.12000
Serial Number,LCRY2101C02399,,-299760000.00000000000,0.24000,1.12000
Software Version,2.07.02.16,,-299720000.00000000000,0.24000,1.12000
,,,-299680000.00000000000,0.24000,1.12000
,,,-299640000.00000000000,0.24000,1.12000
,,,-299600000.00000000000,0.24000,1.12000
,,,-299560000.00000000000,0.24000,1.12000
,,,-299520000.00000000000,0.24000,1.12000
,,,-299480000.00000000000,0.24000,1.12000
,,,-299440000.00000000000,0.24000,1.12000
,,,-299400000.00000000000,0.24000,1.12000
,,,-299360000.00000000000,0.24000,1.12000
,,,-299320000.00000000000,0.24000,1.12000
,,,-299280000.00000000000,0.24000,1.12000
,,,-299240000.00000000000,0.24000,1.12000
,,,-299200000.00000000000,0.24000,1.12000
,,,-299160000.00000000000,0.24000,1.12000
,,,-299120000.00000000000,0.24000,1.12000
,,,-299080000.00000000000,0.24000,1.12000
,,,-299040000.00000000000,0.24000,1.12000
,,,-299000000.00000000000,0.24000,1.12000
,,,-298960000.00000000000,0.24000,1.12000
,,,-298920000.00000000000,0.24000,1.12000
,,,-298880000.00000000000,0.24000,1.12000
,,,-298840000.00000000000,0.24000,1.12000
,,,-298800000.00000000000,0.24000,1.12000
,,,-298760000.00000000000,0.24000,1.12000
,,,-298720000.00000000000,0.24000,1.12000
,,,-298680000.00000000000,0.24000,1.12000
,,,-298640000.00000000000,0.24000,1.12000
,,,-298600000.00000000000,0.24000,1.12000
,,,-298560000.00000000000,0.24000,1.12000
,,,-298520000.00000000000,0.24000,1.12000
,,,-298480000.00000000000,0.24000,1.12000
,,,-298440000.00000000000,0.24000,1.12000
,,,-298400000.00000000000,0.24000,1.12000
,,,-298360000.00000000000,0.24000,1.12000
,,,-298320000.00000000000,0.24000,1.12000
,,,-298280000.00000000000,0.24000,1.12000
,,,-298240000.00000000000,0.24000,1.12000
,,,-298200000.00000000000,0.24000,1.12000
,,,-298160000.00000000000,0.24000,1.12000
,,,-298120000.00000000000,0.24000,1.12000
,,,-298080000.00000000000,0.24000,1.12000
,,,-298040000.00000000000,0.24000,1.12000
,,,-298000000.00000000000,0.12000,1.08000
,,,-297960000.00000000000,0.08000,1.08000
,,,-297920000.00000000000,0.04000,1.08000
,,,-297880000.00000000000,0.24000,1.08000
,,,-297840000.00000000000,0.08000,1.08000
,,,-297800000.00000000000,0.12000,1.04000
,,,-297760000.00000000000,0.08000,1.12000
,,,-297720000.00000000000,0.04000,1.08000
,,,-297680000.00000000000,0.24000,1.08000
,,,-297640000.00000000000,0.12000,1.12000
,,,-297600000.00000000000,0.12000,1.12000
,,,-297560000.00000000000,0.04000,1.08000
,,,-297520000.00000000000,0.08000,1.08000
,,,-297480000.00000000000,0.24000,1.08000
,,,-297440000.00000000000,0.12000,1.08000
,,,-297400000.00000000000,0.16000,1.08000
,,,-297360000.00000000000,0.16000,1.08000
,,,-297320000.00000000000,0.08000,1.08000
,,,-297280000.00000000000,0.24000,1.12000
,,,-297240000.00000000000,0.12000,1.08000
,,,-297200000.00000000000,0.12000,1.08000
,,,-297160000.00000000000,0.08000,1.08000
,,,-297120000.00000000000,0.08000,1.12000
,,,-297080000.00000000000,0.20000,1.08000
,,,-297040000.00000000000,0.12000,1.12000
,,,-297000000.00000000000,0.08000,1.12000
,,,-296960000.00000000000,0.04000,1.08000
,,,-296920000.00000000000,0.04000,1.08000
,,,-296880000.00000000000,0.24000,1.12000
,,,-296840000.00000000000,0.08000,1.08000
,,,-296800000.00000000000,0.08000,1.12000
,,,-296760000.00000000000,0.08000,1.08000
,,,-296720000.00000000000,0.12000,1.08000
,,,-296680000.00000000000,0.24000,1.12000
,,,-296640000.00000000000,0.08000,1.08000
,,,-296600000.00000000000,0.12000,1.08000
,,,-296560000.00000000000,0.08000,1.08000
,,,-296520000.00000000000,0.12000,1.08000
,,,-296480000.00000000000,0.12000,1.12000
,,,-296440000.00000000000,0.16000,1.08000
,,,-296400000.00000000000,0.12000,1.08000
,,,-296360000.00000000000,0.12000,1.12000
,,,-296320000.00000000000,0.24000,1.08000
,,,-296280000.00000000000,0.12000,1.08000
,,,-296240000.00000000000,0.12000,1.08000
,,,-296200000.00000000000,0.12000,1.08000
,,,-296160000.00000000000,0.12000,1.08000
,,,-296120000.00000000000,0.16000,1.08000
,,,-296080000.00000000000,0.12000,1.08000
,,,-296040000.00000000000,0.12000,1.08000
,,,-296000000.00000000000,0.08000,1.08000
,,,-295960000.00000000000,0.08000,1.08000
,,,-295920000.00000000000,0.24000,1.08000
,,,-295880000.00000000000,0.08000,1.12000
,,,-295840000.00000000000,0.08000,1.08000
,,,-295800000.00000000000,0.12000,1.12000
,,,-295760000.00000000000,0.12000,1.08000
,,,-295720000.00000000000,0.16000,1.08000
,,,-295680000.00000000000,0.12000,1.12000
,,,-295640000.00000000000,0.08000,1.04000
,,,-295600000.00000000000,0.12000,1.08000
,,,-295560000.00000000000,0.12000,1.08000
,,,-295520000.00000000000,0.24000,1.08000
,,,-295480000.00000000000,0.12000,1.08000
,,,-295440000.00000000000,0.12000,1.12000
,,,-295400000.00000000000,0.12000,1.12000
,,,-295360000.00000000000,0.12000,1.08000
,,,-295320000.00000000000,0.24000,1.12000
,,,-295280000.00000000000,0.16000,1.08000
,,,-295240000.00000000000,0.12000,1.08000
,,,-295200000.00000000000,0.12000,1.08000
,,,-295160000.00000000000,0.08000,1.12000
,,,-295120000.00000000000,0.24000,1.12000
,,,-295080000.00000000000,0.12000,1.08000
,,,-295040000.00000000000,0.12000,1.12000
,,,-295000000.00000000000,0.12000,1.08000
,,,-294960000.00000000000,0.08000,1.08000
,,,-294920000.00000000000,0.20000,1.08000
,,,-294880000.00000000000,0.12000,1.08000
,,,-294840000.00000000000,0.08000,1.08000
,,,-294800000.00000000000,0.08000,1.08000
,,,-294760000.00000000000,0.08000,1.12000
,,,-294720000.00000000000,0.24000,1.08000
,,,-294680000.00000000000,0.08000,1.08000
,,,-294640000.00000000000,0.08000,1.12000
,,,-294600000.00000000000,0.12000,1.12000
,,,-294560000.00000000000,0.12000,1.08000
,,,-294520000.00000000000,0.24000,1.08000
,,,-294480000.00000000000,0.12000,1.12000
,,,-294440000.00000000000,0.08000,1.12000
,,,-294400000.00000000000,0.16000,1.08000
,,,-294360000.00000000000,0.08000,1.08000
,,,-294320000.00000000000,0.28000,1.08000
,,,-294280000.00000000000,0.12000,1.08000
,,,-294240000.00000000000,0.12000,1.08000
,,,-294200000.00000000000,0.12000,1.08000
,,,-294160000.00000000000,0.08000,1.08000
,,,-294120000.00000000000,0.24000,1.04000
,,,-294080000.00000000000,0.12000,1.12000
,,,-294040000.00000000000,0.12000,1.12000
,,,-294000000.00000000000,0.12000,1.08000
,,,-293960000.00000000000,0.00,1.08000
,,,-293920000.00000000000,0.20000,1.12000
,,,-293880000.00000000000,0.12000,1.12000
,,,-293840000.00000000000,0.08000,1.12000
,,,-293800000.00000000000,0.08000,1.12000
,,,-293760000.00000000000,0.04000,1.08000
,,,-293720000.00000000000,0.24000,1.08000
,,,-293680000.00000000000,0.08000,1.08000
,,,-293640000.00000000000,0.12000,1.08000
,,,-293600000.00000000000,0.08000,1.08000
,,,-293560000.00000000000,0.12000,1.08000
,,,-293520000.00000000000,0.12000,1.08000
,,,-293480000.00000000000,0.12000,1.08000
,,,-293440000.00000000000,0.12000,1.08000
,,,-293400000.00000000000,0.12000,1.08000
,,,-293360000.00000000000,0.24000,1.12000
,,,-293320000.00000000000,0.16000,1.08000
,,,-293280000.00000000000,0.12000,1.12000
,,,-293240000.00000000000,0.12000,1.08000
,,,-293200000.00000000000,0.08000,1.12000
,,,-293160000.00000000000,0.24000,1.12000
,,,-293120000.00000000000,0.12000,1.08000
,,,-293080000.00000000000,0.12000,1.12000
,,,-293040000.00000000000,0.08000,1.08000
,,,-293000000.00000000000,0.08000,1.08000
,,,-292960000.00000000000,0.20000,1.12000
,,,-292920000.00000000000,0.08000,1.08000
,,,-292880000.00000000000,0.08000,1.08000
,,,-292840000.00000000000,0.08000,1.12000
,,,-292800000.00000000000,0.08000,1.08000
,,,-292760000.00000000000,0.24000,1.08000
,,,-292720000.00000000000,0.12000,1.12000
,,,-292680000.00000000000,0.12000,1.08000
,,,-292640000.00000000000,0.12000,1.12000
,,,-292600000.00000000000,0.12000,1.12000
,,,-292560000.00000000000,0.24000,1.08000
,,,-292520000.00000000000,0.12000,1.08000
,,,-292480000.00000000000,0.16000,1.08000
,,,-292440000.00000000000,0.12000,1.12000
,,,-292400000.00000000000,0.12000,1.12000
,,,-292360000.00000000000,0.24000,1.08000
,,,-292320000.00000000000,0.12000,1.08000
,,,-292280000.00000000000,0.12000,1.08000
,,,-292240000.00000000000,0.12000,1.12000
,,,-292200000.00000000000,0.12000,1.12000
,,,-292160000.00000000000,0.24000,1.08000
,,,-292120000.00000000000,0.12000,1.12000
,,,-292080000.00000000000,0.12000,1.12000
,,,-292040000.00000000000,0.12000,1.12000
,,,-292000000.00000000000,0.20000,1.08000
,,,-291960000.00000000000,0.08000,1.12000
,,,-291920000.00000000000,0.08000,1.08000
,,,-291880000.00000000000,0.04000,1.08000
,,,-291840000.00000000000,0.12000,1.12000
,,,-291800000.00000000000,0.20000,1.12000
,,,-291760000.00000000000,0.08000,1.08000
,,,-291720000.00000000000,0.12000,1.08000
,,,-291680000.00000000000,0.08000,1.08000
,,,-291640000.00000000000,0.08000,1.08000
,,,-291600000.00000000000,0.24000,1.08000
,,,-291560000.00000000000,0.12000,1.12000
,,,-291520000.00000000000,0.16000,1.12000
,,,-291480000.00000000000,0.12000,1.08000
,,,-291440000.00000000000,0.08000,1.08000
,,,-291400000.00000000000,0.24000,1.12000
,,,-291360000.00000000000,0.12000,1.04000
,,,-291320000.00000000000,0.12000,1.08000
,,,-291280000.00000000000,0.12000,1.08000
,,,-291240000.00000000000,0.12000,1.12000
,,,-291200000.00000000000,0.28000,1.04000
,,,-291160000.00000000000,0.12000,1.12000
,,,-291120000.00000000000,0.08000,1.12000
,,,-291080000.00000000000,0.04000,1.08000
,,,-291040000.00000000000,0.08000,1.12000
,,,-291000000.00000000000,0.24000,1.08000
,,,-290960000.00000000000,0.12000,1.08000
,,,-290920000.00000000000,0.08000,1.08000
,,,-290880000.00000000000,0.08000,1.08000
,,,-290840000.00000000000,0.04000,1.08000
,,,-290800000.00000000000,0.28000,1.08000
,,,-290760000.00000000000,0.12000,1.12000
,,,-290720000.00000000000,0.08000,1.08000
,,,-290680000.00000000000,0.12000,1.08000
,,,-290640000.00000000000,0.00,1.12000
,,,-290600000.00000000000,0.12000,1.08000
,,,-290560000.00000000000,0.12000,1.08000
,,,-290520000.00000000000,0.12000,1.12000
,,,-290480000.00000000000,0.12000,1.08000
,,,-290440000.00000000000,0.24000,1.08000
,,,-290400000.00000000000,0.16000,1.08000
,,,-290360000.00000000000,0.12000,1.08000
,,,-290320000.00000000000,0.12000,1.12000
,,,-290280000.00000000000,0.08000,1.08000
,,,-290240000.00000000000,0.24000,1.08000
,,,-290200000.00000000000,0.08000,1.12000
,,,-290160000.00000000000,0.12000,1.12000
,,,-290120000.00000000000,0.12000,1.12000
,,,-290080000.00000000000,0.12000,1.12000
,,,-290040000.00000000000,0.12000,1.12000
,,,-290000000.00000000000,0.08000,1.12000
,,,-289960000.00000000000,0.16000,1.08000
,,,-289920000.00000000000,0.12000,1.08000
,,,-289880000.00000000000,0.12000,1.08000
,,,-289840000.00000000000,0.08000,1.12000
,,,-289800000.00000000000,0.04000,1.08000
,,,-289760000.00000000000,0.24000,1.08000
,,,-289720000.00000000000,0.08000,1.08000
,,,-289680000.00000000000,0.08000,1.12000
,,,-289640000.00000000000,0.08000,1.08000
,,,-289600000.00000000000,0.08000,1.08000
,,,-289560000.00000000000,0.20000,1.12000
,,,-289520000.00000000000,0.12000,1.12000
,,,-289480000.00000000000,0.08000,1.08000
,,,-289440000.00000000000,0.12000,1.08000
,,,-289400000.00000000000,0.12000,1.12000
,,,-289360000.00000000000,0.24000,1.08000
,,,-289320000.00000000000,0.16000,1.08000
,,,-289280000.00000000000,0.16000,1.08000
,,,-289240000.00000000000,0.12000,1.08000
,,,-289200000.00000000000,0.04000,1.08000
,,,-289160000.00000000000,0.24000,1.12000
,,,-289120000.00000000000,0.12000,1.08000
,,,-289080000.00000000000,0.12000,1.08000
,,,-289040000.00000000000,0.08000,1.08000
,,,-289000000.00000000000,0.08000,1.12000
,,,-288960000.00000000000,0.24000,1.12000
,,,-288920000.00000000000,0.08000,1.12000
,,,-288880000.00000000000,0.04000,1.08000
,,,-288840000.00000000000,0.08000,1.08000
,,,-288800000.00000000000,0.08000,1.12000
,,,-288760000.00000000000,0.24000,1.08000
,,,-288720000.00000000000,0.12000,1.08000
,,,-288680000.00000000000,0.12000,1.08000
,,,-288640000.00000000000,0.08000,1.12000
,,,-288600000.00000000000,0.08000,1.08000
,,,-288560000.00000000000,0.24000,1.08000
,,,-288520000.00000000000,0.12000,1.12000
,,,-288480000.00000000000,0.12000,1.12000
,,,-288440000.00000000000,0.12000,1.12000
,,,-288400000.00000000000,0.12000,1.08000
,,,-288360000.00000000000,0.28000,1.08000
,,,-288320000.00000000000,0.12000,1.08000
,,,-288280000.00000000000,0.12000,1.08000
,,,-288240000.00000000000,0.12000,1.08000
,,,-288200000.00000000000,0.08000,1.12000
,,,-288160000.00000000000,0.24000,1.12000
,,,-288120000.00000000000,0.12000,1.08000
,,,-288080000.00000000000,0.12000,1.08000
,,,-288040000.00000000000,0.12000,1.08000
,,,-288000000.00000000000,0.08000,1.08000
,,,-287960000.00000000000,0.24000,1.08000
,,,-287920000.00000000000,0.12000,1.12000
,,,-287880000.00000000000,0.12000,1.08000
,,,-287840000.00000000000,0.04000,1.08000
,,,-287800000.00000000000,0.04000,1.08000
,,,-287760000.00000000000,0.24000,1.08000
,,,-287720000.00000000000,0.12000,1.08000
,,,-287680000.00000000000,0.12000,1.08000
,,,-287640000.00000000000,0.08000,1.08000
,,,-287600000.00000000000,0.08000,1.08000
,,,-287560000.00000000000,0.24000,1.08000
,,,-287520000.00000000000,0.12000,1.08000
,,,-287480000.00000000000,0.12000,1.08000
,,,-287440000.00000000000,0.12000,1.08000
,,,-287400000.00000000000,0.20000,1.12000
,,,-287360000.00000000000,0.12000,1.08000
,,,-287320000.00000000000,0.16000,1.08000
,,,-287280000.00000000000,0.12000,1.08000
,,,-287240000.00000000000,0.12000,1.12000
,,,-287200000.00000000000,0.24000,1.08000
,,,-287160000.00000000000,0.16000,1.12000
,,,-287120000.00000000000,0.16000,1.12000
,,,-287080000.00000000000,0.08000,1.08000
,,,-287040000.00000000000,0.08000,1.08000
,,,-287000000.00000000000,0.24000,1.12000
,,,-286960000.00000000000,0.08000,1.08000
,,,-286920000.00000000000,0.08000,1.08000
,,,-286880000.00000000000,0.12000,1.08000
,,,-286840000.00000000000,0.08000,1.12000
,,,-286800000.00000000000,0.20000,1.08000
,,,-286760000.00000000000,0.12000,1.12000
,,,-286720000.00000000000,0.12000,1.08000
,,,-286680000.00000000000,0.08000,1.08000
,,,-286640000.00000000000,0.12000,1.08000
,,,-286600000.00000000000,0.24000,1.08000
,,,-286560000.00000000000,0.12000,1.08000
,,,-286520000.00000000000,0.12000,1.12000
,,,-286480000.00000000000,0.12000,1.12000
,,,-286440000.00000000000,0.12000,1.12000
,,,-286400000.00000000000,0.24000,1.12000
,,,-286360000.00000000000,0.12000,1.08000
,,,-286320000.00000000000,0.16000,1.08000
,,,-286280000.00000000000,0.12000,1.08000
,,,-286240000.00000000000,0.12000,1.08000
,,,-286200000.00000000000,0.24000,1.12000
,,,-286160000.00000000000,0.16000,1.12000
,,,-286120000.00000000000,0.12000,1.12000
,,,-286080000.00000000000,0.08000,1.12000
,,,-286040000.00000000000,0.08000,1.12000
,,,-286000000.00000000000,0.24000,1.08000
,,,-285960000.00000000000,0.12000,1.12000
,,,-285920000.00000000000,0.12000,1.08000
,,,-285880000.00000000000,0.12000,1.08000
,,,-285840000.00000000000,0.04000,1.12000
,,,-285800000.00000000000,0.16000,1.08000
,,,-285760000.00000000000,0.12000,1.12000
,,,-285720000.00000000000,0.12000,1.08000
,,,-285680000.00000000000,0.08000,1.12000
,,,-285640000.00000000000,0.04000,1.08000
,,,-285600000.00000000000,0.24000,1.08000
,,,-285560000.00000000000,0.12000,1.08000
,,,-285520000.00000000000,0.12000,1.12000
,,,-285480000.00000000000,0.08000,1.12000
,,,-285440000.00000000000,0.08000,1.08000
,,,-285400000.00000000000,0.24000,1.08000
,,,-285360000.00000000000,0.16000,1.08000
,,,-285320000.00000000000,0.12000,1.12000
,,,-285280000.00000000000,0.16000,1.08000
,,,-285240000.00000000000,0.08000,1.08000
,,,-285200000.00000000000,0.24000,1.12000
,,,-285160000.00000000000,0.12000,1.08000
,,,-285120000.00000000000,0.12000,1.08000
,,,-285080000.00000000000,0.08000,1.00000
,,,-285040000.00000000000,0.08000,1.08000
,,,-285000000.00000000000,0.24000,1.08000
,,,-284960000.00000000000,0.12000,1.12000
,,,-284920000.00000000000,0.12000,1.08000
,,,-284880000.00000000000,0.08000,1.08000
,,,-284840000.00000000000,0.00,1.12000
,,,-284800000.00000000000,0.20000,1.08000
,,,-284760000.00000000000,0.08000,1.08000
,,,-284720000.00000000000,0.08000,1.12000
,,,-284680000.00000000000,0.12000,1.08000
,,,-284640000.00000000000,0.00,1.08000
,,,-284600000.00000000000,0.32000,1.08000
,,,-284560000.00000000000,0.12000,1.08000
,,,-284520000.00000000000,0.12000,1.08000
,,,-284480000.00000000000,0.12000,1.12000
,,,-284440000.00000000000,0.08000,1.08000
,,,-284400000.00000000000,0.12000,1.08000
,,,-284360000.00000000000,0.12000,1.08000
,,,-284320000.00000000000,0.16000,1.08000
,,,-284280000.00000000000,0.12000,1.08000
,,,-284240000.00000000000,0.24000,1.08000
,,,-284200000.00000000000,0.12000,1.08000
,,,-284160000.00000000000,0.08000,1.08000
,,,-284120000.00000000000,0.12000,1.08000
,,,-284080000.00000000000,0.08000,1.08000
,,,-284040000.00000000000,0.08000,1.08000
,,,-284000000.00000000000,0.08000,1.08000
,,,-283960000.00000000000,0.12000,1.12000
,,,-283920000.00000000000,0.12000,1.08000
,,,-283880000.00000000000,0.08000,1.12000
,,,-283840000.00000000000,0.20000,1.08000
,,,-283800000.00000000000,0.08000,1.12000
,,,-283760000.00000000000,0.08000,1.12000
,,,-283720000.00000000000,0.08000,1.12000
,,,-283680000.00000000000,0.08000,1.08000
,,,-283640000.00000000000,0.24000,1.08000
,,,-283600000.00000000000,0.12000,1.12000
,,,-283560000.00000000000,0.16000,1.12000
,,,-283520000.00000000000,0.12000,1.12000
,,,-283480000.00000000000,0.12000,1.12000
,,,-283440000.00000000000,0.24000,1.08000
,,,-283400000.00000000000,0.12000,1.12000
,,,-283360000.00000000000,0.12000,1.12000
,,,-283320000.00000000000,0.12000,1.08000
,,,-283280000.00000000000,0.12000,1.08000
,,,-283240000.00000000000,0.24000,1.08000
,,,-283200000.00000000000,0.16000,1.08000
,,,-283160000.00000000000,0.08000,1.12000
,,,-283120000.00000000000,0.12000,1.08000
,,,-283080000.00000000000,0.08000,1.08000
,,,-283040000.00000000000,0.20000,1.08000
,,,-283000000.00000000000,0.12000,1.12000
,,,-282960000.00000000000,0.12000,1.08000
,,,-282920000.00000000000,0.04000,1.08000
,,,-282880000.00000000000,0.04000,1.12000
,,,-282840000.00000000000,0.20000,1.08000
,,,-282800000.00000000000,0.08000,1.12000
,,,-282760000.00000000000,0.12000,1.08000
,,,-282720000.00000000000,0.12000,1.12000
,,,-282680000.00000000000,0.08000,1.12000
,,,-282640000.00000000000,0.24000,1.08000
,,,-282600000.00000000000,0.08000,1.12000
,,,-282560000.00000000000,0.12000,1.12000
,,,-282520000.00000000000,0.12000,1.08000
,,,-282480000.00000000000,0.08000,1.08000
,,,-282440000.00000000000,0.28000,1.08000
,,,-282400000.00000000000,0.12000,1.08000
,,,-282360000.00000000000,0.12000,1.08000
,,,-282320000.00000000000,0.08000,1.08000
,,,-282280000.00000000000,0.12000,1.08000
,,,-282240000.00000000000,0.28000,1.12000
,,,-282200000.00000000000,0.12000,1.08000
,,,-282160000.00000000000,0.16000,1.12000
,,,-282120000.00000000000,0.08000,1.12000
,,,-282080000.00000000000,0.08000,1.08000
,,,-282040000.00000000000,0.08000,1.08000
,,,-282000000.00000000000,0.12000,1.08000
,,,-281960000.00000000000,0.12000,1.08000
,,,-281920000.00000000000,0.04000,1.12000
,,,-281880000.00000000000,0.00,1.08000
,,,-281840000.00000000000,0.24000,1.08000
,,,-281800000.00000000000,0.12000,1.12000
,,,-281760000.00000000000,0.12000,1.08000
,,,-281720000.00000000000,0.08000,1.08000
,,,-281680000.00000000000,0.04000,1.12000
,,,-281640000.00000000000,0.20000,1.08000
,,,-281600000.00000000000,0.12000,1.12000
,,,-281560000.00000000000,0.12000,1.08000
,,,-281520000.00000000000,0.12000,1.08000
,,,-281480000.00000000000,0.12000,1.12000
,,,-281440000.00000000000,0.12000,1.12000
,,,-281400000.00000000000,0.16000,1.08000
,,,-281360000.00000000000,0.12000,1.08000
,,,-281320000.00000000000,0.12000,1.12000
